<svg xmlns="http://www.w3.org/2000/svg" viewBox="0 0 319.28 35.39">
  <defs>
    <style>
      .cls-1{
        fill:none;
        stroke:#000;
        stroke-miterlimit:10;
        stroke-width:0.8px;
      }
      .cls-2{
        fill:#000;
      }
    </style>
  </defs>
  <title>logo_1</title>
  <g id="Layer_2" data-name="Layer 2">
    <g id="Layer_1-2" data-name="Layer 1">
      <path class="cls-1" d="M239,2l11.55-.1.2,22.49,14.68-.15.08,9.64-26.23.25Z"/>
      <path class="cls-1" d="M268.77,1.76l11.56-.1.28,32.13-11.55.1Z"/>
      <path class="cls-1" d="M283.34,17.7C283.25,7.33,290.42.5,301.39.4c8.07-.07,16.45,3.41,17.43,14.73l-11,.1c-.76-3.33-3-4.87-6.32-4.84-3.71,0-6.71,2.77-6.67,7.21s3.09,7.12,6.8,7.09c3.29,0,5.53-1.62,6.23-5l11-.09c-.77,11.4-9,15-17.15,15.11C290.72,34.77,283.43,28.06,283.34,17.7Z"/>
      <path class="cls-2" d="M67.59,18.11C67.5,7.74,74.59.91,85.8.81s18.46,6.61,18.55,17-7,17.2-18.25,17.3S67.68,28.48,67.59,18.11Zm25.25-.22c0-4.67-3.24-7.13-7-7.09S79,13.34,79.07,18,82.34,25.13,86,25.1,92.88,22.55,92.84,17.89Z"/>
      <path class="cls-2" d="M51.52,1.7H33.41V34.18H45.08V27.56h6.48c8.89,0,14.35-3.86,14.35-12.91S60.45,1.7,51.52,1.7Zm-1,16.16h-5.4V11.4h5.44c2.12,0,3.56,1.09,3.56,3.25S52.64,17.86,50.48,17.86Z"/>
      <polygon class="cls-2" points="169.69 11.44 180.36 11.44 180.36 34.17 192.07 34.17 192.07 11.44 202.45 11.44 202.45 1.7 169.69 1.7 169.69 11.44"/>
      <polygon class="cls-2" points="111.46 1.7 105.16 1.7 105.16 11.44 111.26 11.44 111.26 24.43 105.16 24.43 105.16 34.17 111.26 34.17 122.97 34.17 129.12 34.17 129.12 24.43 123.18 24.43 123.18 11.44 129.12 11.44 129.12 1.7 123.18 1.7 111.46 1.7"/>
      <polygon class="cls-2" points="155.83 17.82 154.75 17.82 145.39 1.7 132.01 1.7 132.01 34.17 143.42 34.17 143.42 18.05 144.46 18.05 154.13 34.17 167.24 34.17 167.24 1.7 155.83 1.7 155.83 17.82"/>
      <polygon class="cls-2" points="235.74 11.09 235.74 1.7 204.44 1.7 204.44 11.44 219.81 11.44 219.81 12.33 204.09 24.78 204.09 34.17 235.5 34.17 235.5 24.43 219.74 24.43 219.74 23.54 235.74 11.09"/>
      <path class="cls-2" d="M0,23.59H10.38c.42,1.93,2.48,2.71,4.72,2.71,3.68,0,5.19-1.86,5.19-3.49,0-1.82-1.55-3.32-4.88-3.32a6.06,6.06,0,0,0-4.88,1.89H.28L.91,2H28v9.25H11.65l-.07,3a17.65,17.65,0,0,1,7.67-1.4c6.39,0,12,3.37,12,10.57,0,7.36-5.54,11.92-16.07,11.92C4.92,35.39-.19,31.52,0,23.59Z"/>
    </g>
  </g>
</svg>
